TP1/Mediciones/IO.CSV

Record Length,20480,,Source,CH1
Sample Interval,CH1:0.0000000040000,,Second,Volt
Vertical Units,CH1:V,,-0.00004096000,0.03200,
Vertical Scale,CH1:0.10,,-0.00004095600,0.02800,
Vertical Offset,CH1:-0.00200,,-0.00004095200,0.04000,
Horizontal Units,s,,-0.00004094800,0.02000,
Horizontal Scale,0.0000010000,,-0.00004094400,0.04400,
Model Number,SDS1072CML+,,-0.00004094000,0.02400,
Serial Number,SDS10BA3163351,,-0.00004093600,0.03600,
Software Version,6.01.01.16,,-0.00004093200,0.03200,
,,,-0.00004092800,0.02400,
,,,-0.00004092400,0.04400,
,,,-0.00004092000,0.02000,
,,,-0.00004091600,0.04400,
,,,-0.00004091200,0.02400,
,,,-0.00004090800,0.03600,
,,,-0.00004090400,0.03600,
,,,-0.00004090000,0.02400,
,,,-0.00004089600,0.04000,
,,,-0.00004089200,0.02000,
,,,-0.00004088800,0.04800,
,,,-0.00004088400,0.02400,
,,,-0.00004088000,0.04000,
,,,-0.00004087600,0.03200,
,,,-0.00004087200,0.02400,
,,,-0.00004086800,0.04000,
,,,-0.00004086400,0.02000,
,,,-0.00004086000,0.04400,
,,,-0.00004085600,0.02400,
,,,-0.00004085200,0.03200,
,,,-0.00004084800,0.03200,
,,,-0.00004084400,0.02800,
,,,-0.00004084000,0.04000,
,,,-0.00004083600,0.02400,
,,,-0.00004083200,0.03600,
,,,-0.00004082800,0.02000,
,,,-0.00004082400,0.04000,
,,,-0.00004082000,0.03200,
,,,-0.00004081600,0.02800,
,,,-0.00004081200,0.03600,
,,,-0.00004080800,0.02000,
,,,-0.00004080400,0.04400,
,,,-0.00004080000,0.02400,
,,,-0.00004079600,0.03600,
,,,-0.00004079200,0.02800,
,,,-0.00004078800,0.02800,
,,,-0.00004078400,0.04000,
,,,-0.00004078000,0.02400,
,,,-0.00004077600,0.04000,
,,,-0.00004077200,0.02000,
,,,-0.00004076800,0.03600,
,,,-0.00004076400,0.03200,
,,,-0.00004076000,0.02800,
,,,-0.00004075600,0.04000,
,,,-0.00004075200,0.02000,
,,,-0.00004074800,0.04400,
,,,-0.00004074400,0.02400,
,,,-0.00004074000,0.04000,
,,,-0.00004073600,0.02800,
,,,-0.00004073200,0.02800,
,,,-0.00004072800,0.03600,
,,,-0.00004072400,0.02400,
,,,-0.00004072000,0.04000,
,,,-0.00004071600,0.02400,
,,,-0.00004071200,0.03600,
,,,-0.00004070800,0.02800,
,,,-0.00004070400,0.03200,
,,,-0.00004070000,0.04000,
,,,-0.00004069600,0.02000,
,,,-0.00004069200,0.04000,
,,,-0.00004068800,0.02000,
,,,-0.00004068400,0.04000,
,,,-0.00004068000,0.02800,
,,,-0.00004067600,0.02800,
,,,-0.00004067200,0.03600,
,,,-0.00004066800,0.02000,
,,,-0.00004066400,0.04400,
,,,-0.00004066000,0.02000,
,,,-0.00004065600,0.04000,
,,,-0.00004065200,0.02400,
,,,-0.00004064800,0.03200,
,,,-0.00004064400,0.04000,
,,,-0.00004064000,0.02400,
,,,-0.00004063600,0.04400,
,,,-0.00004063200,0.02000,
,,,-0.00004062800,0.04000,
,,,-0.00004062400,0.02800,
,,,-0.00004062000,0.03200,
,,,-0.00004061600,0.04000,
,,,-0.00004061200,0.02000,
,,,-0.00004060800,0.04400,
,,,-0.00004060400,0.02400,
,,,-0.00004060000,0.04000,
,,,-0.00004059600,0.02800,
,,,-0.00004059200,0.02800,
,,,-0.00004058800,0.03600,
,,,-0.00004058400,0.02400,
,,,-0.00004058000,0.04000,
,,,-0.00004057600,0.02000,
,,,-0.00004057200,0.03600,
,,,-0.00004056800,0.02800,
,,,-0.00004056400,0.03200,
,,,-0.00004056000,0.04000,
,,,-0.00004055600,0.02400,
,,,-0.00004055200,0.04000,
,,,-0.00004054800,0.02000,
,,,-0.00004054400,0.04000,
,,,-0.00004054000,0.02800,
,,,-0.00004053600,0.03200,
,,,-0.00004053200,0.03600,
,,,-0.00004052800,0.02400,
,,,-0.00004052400,0.04400,
,,,-0.00004052000,0.02400,
,,,-0.00004051600,0.04000,
,,,-0.00004051200,0.02400,
,,,-0.00004050800,0.03200,
,,,-0.00004050400,0.03600,
,,,-0.00004050000,0.02400,
,,,-0.00004049600,0.04400,
,,,-0.00004049200,0.01600,
,,,-0.00004048800,0.04000,
,,,-0.00004048400,0.02400,
,,,-0.00004048000,0.03200,
,,,-0.00004047600,0.03600,
,,,-0.00004047200,0.02000,
,,,-0.00004046800,0.04000,
,,,-0.00004046400,0.02000,
,,,-0.00004046000,0.04000,
,,,-0.00004045600,0.02800,
,,,-0.00004045200,0.02800,
,,,-0.00004044800,0.03600,
,,,-0.00004044400,0.02400,
,,,-0.00004044000,0.04400,
,,,-0.00004043600,0.02000,
,,,-0.00004043200,0.03600,
,,,-0.00004042800,0.02800,
,,,-0.00004042400,0.03600,
,,,-0.00004042000,0.04000,
,,,-0.00004041600,0.02400,
,,,-0.00004041200,0.04000,
,,,-0.00004040800,0.02000,
,,,-0.00004040400,0.04000,
,,,-0.00004040000,0.02400,
,,,-0.00004039600,0.03200,
,,,-0.00004039200,0.03600,
,,,-0.00004038800,0.02400,
,,,-0.00004038400,0.04400,
,,,-0.00004038000,0.02000,
,,,-0.00004037600,0.04000,
,,,-0.00004037200,0.02400,
,,,-0.00004036800,0.03200,
,,,-0.00004036400,0.03600,
,,,-0.00004036000,0.02400,
,,,-0.00004035600,0.04400,
,,,-0.00004035200,0.01600,
,,,-0.00004034800,0.04000,
,,,-0.00004034400,0.02800,
,,,-0.00004034000,0.03200,
,,,-0.00004033600,0.03600,
,,,-0.00004033200,0.02000,
,,,-0.00004032800,0.04000,
,,,-0.00004032400,0.02400,
,,,-0.00004032000,0.04000,
,,,-0.00004031600,0.02800,
,,,-0.00004031200,0.02800,
,,,-0.00004030800,0.03600,
,,,-0.00004030400,0.02400,
,,,-0.00004030000,0.04400,
,,,-0.00004029600,0.02000,
,,,-0.00004029200,0.03600,
,,,-0.00004028800,0.02800,
,,,-0.00004028400,0.03200,
,,,-0.00004028000,0.03600,
,,,-0.00004027600,0.02400,
,,,-0.00004027200,0.04000,
,,,-0.00004026800,0.02000,
,,,-0.00004026400,0.04000,
,,,-0.00004026000,0.02400,
,,,-0.00004025600,0.02800,
,,,-0.00004025200,0.03600,
,,,-0.00004024800,0.02400,
,,,-0.00004024400,0.04400,
,,,-0.00004024000,0.02400,
,,,-0.00004023600,0.04000,
,,,-0.00004023200,0.02800,
,,,-0.00004022800,0.02800,
,,,-0.00004022400,0.03600,
,,,-0.00004022000,0.02400,
,,,-0.00004021600,0.04000,
,,,-0.00004021200,0.02000,
,,,-0.00004020800,0.04000,
,,,-0.00004020400,0.02800,
,,,-0.00004020000,0.03200,
,,,-0.00004019600,0.03600,
,,,-0.00004019200,0.02000,
,,,-0.00004018800,0.04000,
,,,-0.00004018400,0.02400,
,,,-0.00004018000,0.04400,
,,,-0.00004017600,0.02800,
,,,-0.00004017200,0.02800,
,,,-0.00004016800,0.03600,
,,,-0.00004016400,0.02400,
,,,-0.00004016000,0.04000,
,,,-0.00004015600,0.02000,
,,,-0.00004015200,0.03600,
,,,-0.00004014800,0.02800,
,,,-0.00004014400,0.03600,
,,,-0.00004014000,0.03600,
,,,-0.00004013600,0.02400,
,,,-0.00004013200,0.04000,
,,,-0.00004012800,0.02000,
,,,-0.00004012400,0.04400,
,,,-0.00004012000,0.02400,
,,,-0.00004011600,0.03200,
,,,-0.00004011200,0.03600,
,,,-0.00004010800,0.02400,
,,,-0.00004010400,0.04400,
,,,-0.00004010000,0.02400,
,,,-0.00004009600,0.04000,
,,,-0.00004009200,0.02800,
,,,-0.00004008800,0.03200,
,,,-0.00004008400,0.04000,
,,,-0.00004008000,0.02400,
,,,-0.00004007600,0.04000,
,,,-0.00004007200,0.02000,
,,,-0.00004006800,0.04000,
,,,-0.00004006400,0.02800,
,,,-0.00004006000,0.03200,
,,,-0.00004005600,0.03600,
,,,-0.00004005200,0.02000,
,,,-0.00004004800,0.04400,
,,,-0.00004004400,0.02400,
,,,-0.00004004000,0.04000,
,,,-0.00004003600,0.02800,
,,,-0.00004003200,0.02800,
,,,-0.00004002800,0.03600,
,,,-0.00004002400,0.02400,
,,,-0.00004002000,0.04400,
,,,-0.00004001600,0.02400,
,,,-0.00004001200,0.03600,
,,,-0.00004000800,0.02800,
,,,-0.00004000400,0.03200,
,,,-0.00004000000,0.04000,
,,,-0.00003999600,0.02400,
,,,-0.00003999200,0.04000,
,,,-0.00003998800,0.02000,
,,,-0.00003998400,0.04000,
,,,-0.00003998000,0.02800,
,,,-0.00003997600,0.02800,
,,,-0.00003997200,0.03600,
,,,-0.00003996800,0.02400,
,,,-0.00003996400,0.04400,
,,,-0.00003996000,0.02400,
,,,-0.00003995600,0.03600,
,,,-0.00003995200,0.02800,
,,,-0.00003994800,0.03200,
,,,-0.00003994400,0.04000,
,,,-0.00003994000,0.02400,
,,,-0.00003993600,0.04000,
,,,-0.00003993200,0.02000,
,,,-0.00003992800,0.03600,
,,,-0.00003992400,0.02800,
,,,-0.00003992000,0.02800,
,,,-0.00003991600,0.04000,
,,,-0.00003991200,0.01600,
,,,-0.00003990800,0.03600,
,,,-0.00003990400,0.02400,
,,,-0.00003990000,0.03600,
,,,-0.00003989600,0.02800,
,,,-0.00003989200,0.02400,
,,,-0.00003988800,0.03600,
,,,-0.00003988400,0.02400,
,,,-0.00003988000,0.04000,
,,,-0.00003987600,0.02400,
,,,-0.00003987200,0.03200,
,,,-0.00003986800,0.02800,
,,,-0.00003986400,0.02800,
,,,-0.00003986000,0.04000,
,,,-0.00003985600,0.02000,
,,,-0.00003985200,0.03600,
,,,-0.00003984800,0.02000,
,,,-0.00003984400,0.03600,
,,,-0.00003984000,0.03200,
,,,-0.00003983600,0.02800,
,,,-0.00003983200,0.03600,
,,,-0.00003982800,0.02400,
,,,-0.00003982400,0.04400,
,,,-0.00003982000,0.02400,
,,,-0.00003981600,0.03600,
,,,-0.00003981200,0.02800,
,,,-0.00003980800,0.02800,
,,,-0.00003980400,0.04400,
,,,-0.00003980000,0.02000,
,,,-0.00003979600,0.03600,
,,,-0.00003979200,0.01600,
,,,-0.00003978800,0.02800,
,,,-0.00003978400,0.02800,
,,,-0.00003978000,0.02000,
,,,-0.00003977600,0.03600,
,,,-0.00003977200,0.01200,
,,,-0.00003976800,0.03200,
,,,-0.00003976400,0.02000,
,,,-0.00003976000,0.02800,
,,,-0.00003975600,0.02800,
,,,-0.00003975200,0.02000,
,,,-0.00003974800,0.03600,
,,,-0.00003974400,0.02000,
,,,-0.00003974000,0.03600,
,,,-0.00003973600,0.02000,
,,,-0.00003973200,0.02800,
,,,-0.00003972800,0.03200,
,,,-0.00003972400,0.02000,
,,,-0.00003972000,0.03600,
,,,-0.00003971600,0.02000,
,,,-0.00003971200,0.03200,
,,,-0.00003970800,0.02000,
,,,-0.00003970400,0.02800,
,,,-0.00003970000,0.03200,
,,,-0.00003969600,0.02000,
,,,-0.00003969200,0.03600,
,,,-0.00003968800,0.01600,
,,,-0.00003968400,0.03600,
,,,-0.00003968000,0.02400,
,,,-0.00003967600,0.02400,
,,,-0.00003967200,0.02800,
,,,-0.00003966800,0.02000,
,,,-0.00003966400,0.03600,
,,,-0.00003966000,0.01600,
,,,-0.00003965600,0.03200,
,,,-0.00003965200,0.02400,
,,,-0.00003964800,0.02800,
,,,-0.00003964400,0.03200,
,,,-0.00003964000,0.02000,
,,,-0.00003963600,0.03600,
,,,-0.00003963200,0.02000,
,,,-0.00003962800,0.03200,
,,,-0.00003962400,0.02800,
,,,-0.00003962000,0.02400,
,,,-0.00003961600,0.02800,
,,,-0.00003961200,0.01200,
,,,-0.00003960800,0.03200,
,,,-0.00003960400,0.02400,
,,,-0.00003960000,0.02800,
,,,-0.00003959600,0.02800,
,,,-0.00003959200,0.02400,
,,,-0.00003958800,0.03600,
,,,-0.00003958400,0.03200,
,,,-0.00003958000,0.05600,
,,,-0.00003957600,0.04400,
,,,-0.00003957200,0.04400,
,,,-0.00003956800,0.03600,
,,,-0.00003956400,0.02800,
,,,-0.00003956000,0.01600,
,,,-0.00003955600,0.13200,
,,,-0.00003955200,0.23600,
,,,-0.00003954800,0.14000,
,,,-0.00003954400,0.10400,
,,,-0.00003954000,0.20000,
,,,-0.00003953600,0.24800,
,,,-0.00003953200,0.18000,
,,,-0.00003952800,0.16000,
,,,-0.00003952400,0.20800,
,,,-0.00003952000,0.22000,
,,,-0.00003951600,0.21600,
,,,-0.00003951200,0.20400,
,,,-0.00003950800,0.22800,
,,,-0.00003950400,0.21600,
,,,-0.00003950000,0.22800,
,,,-0.00003949600,0.22800,
,,,-0.00003949200,0.22000,
,,,-0.00003948800,0.23200,
,,,-0.00003948400,0.21600,
,,,-0.00003948000,0.24000,
,,,-0.00003947600,0.22400,
,,,-0.00003947200,0.23600,
,,,-0.00003946800,0.23600,
,,,-0.00003946400,0.22800,
,,,-0.00003946000,0.24400,
,,,-0.00003945600,0.22400,
,,,-0.00003945200,0.24400,
,,,-0.00003944800,0.22800,
,,,-0.00003944400,0.24000,
,,,-0.00003944000,0.23600,
,,,-0.00003943600,0.23200,
,,,-0.00003943200,0.24400,
,,,-0.00003942800,0.22800,
,,,-0.00003942400,0.24800,
,,,-0.00003942000,0.22800,
,,,-0.00003941600,0.24000,
,,,-0.00003941200,0.24000,
,,,-0.00003940800,0.23600,
,,,-0.00003940400,0.24800,
,,,-0.00003940000,0.23200,
,,,-0.00003939600,0.24400,
,,,-0.00003939200,0.23200,
,,,-0.00003938800,0.24000,
,,,-0.00003938400,0.24400,
,,,-0.00003938000,0.23200,
,,,-0.00003937600,0.24800,
,,,-0.00003937200,0.23200,
,,,-0.00003936800,0.24800,
,,,-0.00003936400,0.22800,
,,,-0.00003936000,0.24400,
,,,-0.00003935600,0.24000,
,,,-0.00003935200,0.23600,
,,,-0.00003934800,0.24400,
,,,-0.00003934400,0.22800,
,,,-0.00003934000,0.24800,
,,,-0.00003933600,0.23200,
,,,-0.00003933200,0.24000,
,,,-0.00003932800,0.24000,
,,,-0.00003932400,0.24000,
,,,-0.00003932000,0.24400,
,,,-0.00003931600,0.22800,
,,,-0.00003931200,0.25200,
,,,-0.00003930800,0.23200,
,,,-0.00003930400,0.24800,
,,,-0.00003930000,0.23600,
,,,-0.00003929600,0.23600,
,,,-0.00003929200,0.24400,
,,,-0.00003928800,0.23200,
,,,-0.00003928400,0.24800,
,,,-0.00003928000,0.23200,
,,,-0.00003927600,0.24400,
,,,-0.00003927200,0.24000,
,,,-0.00003926800,0.23600,
,,,-0.00003926400,0.24800,
,,,-0.00003926000,0.22800,
,,,-0.00003925600,0.24800,
,,,-0.00003925200,0.23600,
,,,-0.00003924800,0.24800,
,,,-0.00003924400,0.24000,
,,,-0.00003924000,0.24000,
,,,-0.00003923600,0.24400,
,,,-0.00003923200,0.23600,
,,,-0.00003922800,0.24800,
,,,-0.00003922400,0.23600,
,,,-0.00003922000,0.24800,
,,,-0.00003921600,0.24000,
,,,-0.00003921200,0.24000,
,,,-0.00003920800,0.24800,
,,,-0.00003920400,0.24000,
,,,-0.00003920000,0.25200,
,,,-0.00003919600,0.24000,
,,,-0.00003919200,0.25600,
,,,-0.00003918800,0.24800,
,,,-0.00003918400,0.25200,
,,,-0.00003918000,0.26000,
,,,-0.00003917600,0.24400,
,,,-0.00003917200,0.26800,
,,,-0.00003916800,0.25200,
,,,-0.00003916400,0.27200,
,,,-0.00003916000,0.26000,
,,,-0.00003915600,0.25600,
,,,-0.00003915200,0.26000,
,,,-0.00003914800,0.24000,
,,,-0.00003914400,0.24800,
,,,-0.00003914000,0.22800,
,,,-0.00003913600,0.24000,
,,,-0.00003913200,0.23600,
,,,-0.00003912800,0.24800,
,,,-0.00003912400,0.25200,
,,,-0.00003912000,0.23200,
,,,-0.00003911600,0.24800,
,,,-0.00003911200,0.23600,
,,,-0.00003910800,0.25200,
,,,-0.00003910400,0.24400,
,,,-0.00003910000,0.24400,
,,,-0.00003909600,0.24800,
,,,-0.00003909200,0.24000,
,,,-0.00003908800,0.25600,
,,,-0.00003908400,0.24000,
,,,-0.00003908000,0.25200,
,,,-0.00003907600,0.24400,
,,,-0.00003907200,0.24800,
,,,-0.00003906800,0.24800,
,,,-0.00003906400,0.24400,
,,,-0.00003906000,0.26000,
,,,-0.00003905600,0.24000,
,,,-0.00003905200,0.25600,
,,,-0.00003904800,0.24400,
,,,-0.00003904400,0.24800,
,,,-0.00003904000,0.24800,
,,,-0.00003903600,0.24000,
,,,-0.00003903200,0.25600,
,,,-0.00003902800,0.23600,
,,,-0.00003902400,0.26000,
,,,-0.00003902000,0.24000,
,,,-0.00003901600,0.24800,
,,,-0.00003901200,0.25200,
,,,-0.00003900800,0.24400,
,,,-0.00003900400,0.25600,
,,,-0.00003900000,0.23600,
,,,-0.00003899600,0.25200,
,,,-0.00003899200,0.24000,
,,,-0.00003898800,0.25200,
,,,-0.00003898400,0.24800,
,,,-0.00003898000,0.24000,
,,,-0.00003897600,0.25200,
,,,-0.00003897200,0.23600,
,,,-0.00003896800,0.25200,
,,,-0.00003896400,0.24000,
,,,-0.00003896000,0.24800,
,,,-0.00003895600,0.24800,
,,,-0.00003895200,0.24400,
,,,-0.00003894800,0.25200,
,,,-0.00003894400,0.24400,
,,,-0.00003894000,0.25200,
,,,-0.00003893600,0.23600,
,,,-0.00003893200,0.25200,
,,,-0.00003892800,0.24800,
,,,-0.00003892400,0.24400,
,,,-0.00003892000,0.25200,
,,,-0.00003891600,0.23600,
,,,-0.00003891200,0.25600,
,,,-0.00003890800,0.23600,
,,,-0.00003890400,0.25200,
,,,-0.00003890000,0.24400,
,,,-0.00003889600,0.24400,
,,,-0.00003889200,0.25600,
,,,-0.00003888800,0.23600,
,,,-0.00003888400,0.25600,
,,,-0.00003888000,0.23600,
,,,-0.00003887600,0.25200,
,,,-0.00003887200,0.24400,
,,,-0.00003886800,0.24400,
,,,-0.00003886400,0.25200,
,,,-0.00003886000,0.23600,
,,,-0.00003885600,0.25600,
,,,-0.00003885200,0.23600,
,,,-0.00003884800,0.25200,
,,,-0.00003884400,0.24400,
,,,-0.00003884000,0.24400,
,,,-0.00003883600,0.24800,
,,,-0.00003883200,0.23600,
,,,-0.00003882800,0.25200,
,,,-0.00003882400,0.24000,
,,,-0.00003882000,0.25200,
,,,-0.00003881600,0.24000,
,,,-0.00003881200,0.24800,
,,,-0.00003880800,0.24800,
,,,-0.00003880400,0.24000,
,,,-0.00003880000,0.25600,
,,,-0.00003879600,0.23200,
,,,-0.00003879200,0.25200,
,,,-0.00003878800,0.24000,
,,,-0.00003878400,0.24800,
,,,-0.00003878000,0.24800,
,,,-0.00003877600,0.23600,
,,,-0.00003877200,0.25600,
,,,-0.00003876800,0.23200,
,,,-0.00003876400,0.25600,
,,,-0.00003876000,0.24000,
,,,-0.00003875600,0.24400,
,,,-0.00003875200,0.24800,
,,,-0.00003874800,0.23600,
,,,-0.00003874400,0.25600,
,,,-0.00003874000,0.23200,
,,,-0.00003873600,0.25600,
,,,-0.00003873200,0.24000,
,,,-0.00003872800,0.24800,
,,,-0.00003872400,0.24800,
,,,-0.00003872000,0.23600,
,,,-0.00003871600,0.25600,
,,,-0.00003871200,0.23600,
,,,-0.00003870800,0.25200,
,,,-0.00003870400,0.24400,
,,,-0.00003870000,0.24800,
,,,-0.00003869600,0.24400,
,,,-0.00003869200,0.24400,
,,,-0.00003868800,0.25200,
,,,-0.00003868400,0.24000,
,,,-0.00003868000,0.25200,
,,,-0.00003867600,0.23600,
,,,-0.00003867200,0.25200,
,,,-0.00003866800,0.24400,
,,,-0.00003866400,0.24400,
,,,-0.00003866000,0.25200,
,,,-0.00003865600,0.23600,
,,,-0.00003865200,0.25600,
,,,-0.00003864800,0.23600,
,,,-0.00003864400,0.25200,
,,,-0.00003864000,0.24400,
,,,-0.00003863600,0.24400,
,,,-0.00003863200,0.25200,
,,,-0.00003862800,0.24000,
,,,-0.00003862400,0.26000,
,,,-0.00003862000,0.23600,
,,,-0.00003861600,0.25200,
,,,-0.00003861200,0.24800,
,,,-0.00003860800,0.24400,
,,,-0.00003860400,0.25600,
,,,-0.00003860000,0.24000,
,,,-0.00003859600,0.25600,
,,,-0.00003859200,0.24000,
,,,-0.00003858800,0.25200,
,,,-0.00003858400,0.24800,
,,,-0.00003858000,0.24400,
,,,-0.00003857600,0.24800,
,,,-0.00003857200,0.24000,
,,,-0.00003856800,0.25200,
,,,-0.00003856400,0.24000,
,,,-0.00003856000,0.25600,
,,,-0.00003855600,0.24400,
,,,-0.00003855200,0.24800,
,,,-0.00003854800,0.25200,
,,,-0.00003854400,0.24400,
,,,-0.00003854000,0.26000,
,,,-0.00003853600,0.23600,
,,,-0.00003853200,0.26000,
,,,-0.00003852800,0.24400,
,,,-0.00003852400,0.25200,
,,,-0.00003852000,0.25200,
,,,-0.00003851600,0.24000,
,,,-0.00003851200,0.26000,
,,,-0.00003850800,0.24000,
,,,-0.00003850400,0.26000,
,,,-0.00003850000,0.24400,
,,,-0.00003849600,0.25200,
,,,-0.00003849200,0.25200,
,,,-0.00003848800,0.24000,
,,,-0.00003848400,0.26400,
,,,-0.00003848000,0.24000,
,,,-0.00003847600,0.25600,
,,,-0.00003847200,0.24400,
,,,-0.00003846800,0.25200,
,,,-0.00003846400,0.25200,
,,,-0.00003846000,0.24400,
,,,-0.00003845600,0.25600,
,,,-0.00003845200,0.24000,
,,,-0.00003844800,0.25600,
,,,-0.00003844400,0.24400,
,,,-0.00003844000,0.25200,
,,,-0.00003843600,0.24800,
,,,-0.00003843200,0.24400,
,,,-0.00003842800,0.25600,
,,,-0.00003842400,0.24000,
,,,-0.00003842000,0.25600,
,,,-0.00003841600,0.24000,
,,,-0.00003841200,0.25200,
,,,-0.00003840800,0.24800,
,,,-0.00003840400,0.24800,
,,,-0.00003840000,0.25600,
,,,-0.00003839600,0.23600,
,,,-0.00003839200,0.26000,
,,,-0.00003838800,0.24000,
,,,-0.00003838400,0.25600,
,,,-0.00003838000,0.24400,
,,,-0.00003837600,0.24400,
,,,-0.00003837200,0.25600,
,,,-0.00003836800,0.24000,
,,,-0.00003836400,0.26000,
,,,-0.00003836000,0.23600,
,,,-0.00003835600,0.25600,
,,,-0.00003835200,0.24800,
,,,-0.00003834800,0.24400,
,,,-0.00003834400,0.25600,
,,,-0.00003834000,0.23600,
,,,-0.00003833600,0.25600,
,,,-0.00003833200,0.24000,
,,,-0.00003832800,0.25200,
,,,-0.00003832400,0.24400,
,,,-0.00003832000,0.24400,
,,,-0.00003831600,0.24800,
,,,-0.00003831200,0.24000,
,,,-0.00003830800,0.25600,
,,,-0.00003830400,0.24000,
,,,-0.00003830000,0.25600,
,,,-0.00003829600,0.24000,
,,,-0.00003829200,0.24800,
,,,-0.00003828800,0.24800,
,,,-0.00003828400,0.24000,
,,,-0.00003828000,0.26000,
,,,-0.00003827600,0.23600,
,,,-0.00003827200,0.25600,
,,,-0.00003826800,0.24000,
,,,-0.00003826400,0.24800,
,,,-0.00003826000,0.24800,
,,,-0.00003825600,0.23600,
,,,-0.00003825200,0.25600,
,,,-0.00003824800,0.23600,
,,,-0.00003824400,0.26000,
,,,-0.00003824000,0.24000,
,,,-0.00003823600,0.24800,
,,,-0.00003823200,0.25200,
,,,-0.00003822800,0.24000,
,,,-0.00003822400,0.25600,
,,,-0.00003822000,0.23600,
,,,-0.00003821600,0.25600,
,,,-0.00003821200,0.24000,
,,,-0.00003820800,0.24800,
,,,-0.00003820400,0.24800,
,,,-0.00003820000,0.24000,
,,,-0.00003819600,0.25200,
,,,-0.00003819200,0.23600,
,,,-0.00003818800,0.25600,
,,,-0.00003818400,0.24000,
,,,-0.00003818000,0.24800,
,,,-0.00003817600,0.24400,
,,,-0.00003817200,0.24400,
,,,-0.00003816800,0.25600,
,,,-0.00003816400,0.23600,
,,,-0.00003816000,0.25200,
,,,-0.00003815600,0.24000,
,,,-0.00003815200,0.25200,
,,,-0.00003814800,0.24400,
,,,-0.00003814400,0.24800,
,,,-0.00003814000,0.25200,
,,,-0.00003813600,0.23600,
,,,-0.00003813200,0.25600,
,,,-0.00003812800,0.23600,
,,,-0.00003812400,0.25600,
,,,-0.00003812000,0.24400,
,,,-0.00003811600,0.24400,
,,,-0.00003811200,0.25200,
,,,-0.00003810800,0.23600,
,,,-0.00003810400,0.26000,
,,,-0.00003810000,0.23600,
,,,-0.00003809600,0.24800,
,,,-0.00003809200,0.24400,
,,,-0.00003808800,0.24800,
,,,-0.00003808400,0.25200,
,,,-0.00003808000,0.24000,
,,,-0.00003807600,0.25600,
,,,-0.00003807200,0.23600,
,,,-0.00003806800,0.25200,
,,,-0.00003806400,0.24400,
,,,-0.00003806000,0.24800,
,,,-0.00003805600,0.24800,
,,,-0.00003805200,0.24000,
,,,-0.00003804800,0.25200,
,,,-0.00003804400,0.24000,
